sim/day6/mux4_1.sim/sim_1/behav/xsim/simulate.log
Time resolution is 1 ps
input d0=0, d1=0, d2=0, d3=0, sel[1]=0, sel[0]=0, output y=0
input d0=0, d1=0, d2=0, d3=0, sel[1]=0, sel[0]=1, output y=0
input d0=0, d1=0, d2=0, d3=0, sel[1]=1, sel[0]=0, output y=0
input d0=0, d1=0, d2=0, d3=0, sel[1]=1, sel[0]=1, output y=0
input d0=1, d1=0, d2=0, d3=0, sel[1]=0, sel[0]=0, output y=1
input d0=1, d1=0, d2=0, d3=0, sel[1]=0, sel[0]=1, output y=0
input d0=1, d1=0, d2=0, d3=0, sel[1]=1, sel[0]=0, output y=0
input d0=1, d1=0, d2=0, d3=0, sel[1]=1, sel[0]=1, output y=0
input d0=0, d1=1, d2=0, d3=0, sel[1]=0, sel[0]=0, output y=0
input d0=0, d1=1, d2=0, d3=0, sel[1]=0, sel[0]=1, output y=1
input d0=0, d1=1, d2=0, d3=0, sel[1]=1, sel[0]=0, output y=0
input d0=0, d1=1, d2=0, d3=0, sel[1]=1, sel[0]=1, output y=0
input d0=1, d1=1, d2=0, d3=0, sel[1]=0, sel[0]=0, output y=1
input d0=1, d1=1, d2=0, d3=0, sel[1]=0, sel[0]=1, output y=1
input d0=1, d1=1, d2=0, d3=0, sel[1]=1, sel[0]=0, output y=0
input d0=1, d1=1, d2=0, d3=0, sel[1]=1, sel[0]=1, output y=0
input d0=0, d1=0, d2=1, d3=0, sel[1]=0, sel[0]=0, output y=0
input d0=0, d1=0, d2=1, d3=0, sel[1]=0, sel[0]=1, output y=0
input d0=0, d1=0, d2=1, d3=0, sel[1]=1, sel[0]=0, output y=1
input d0=0, d1=0, d2=1, d3=0, sel[1]=1, sel[0]=1, output y=0
input d0=1, d1=0, d2=1, d3=0, sel[1]=0, sel[0]=0, output y=1
input d0=1, d1=0, d2=1, d3=0, sel[1]=0, sel[0]=1, output y=0
input d0=1, d1=0, d2=1, d3=0, sel[1]=1, sel[0]=0, output y=1
input d0=1, d1=0, d2=1, d3=0, sel[1]=1, sel[0]=1, output y=0
input d0=0, d1=1, d2=1, d3=0, sel[1]=0, sel[0]=0, output y=0
input d0=0, d1=1, d2=1, d3=0, sel[1]=0, sel[0]=1, output y=1
input d0=0, d1=1, d2=1, d3=0, sel[1]=1, sel[0]=0, output y=1
input d0=0, d1=1, d2=1, d3=0, sel[1]=1, sel[0]=1, output y=0
input d0=1, d1=1, d2=1, d3=0, sel[1]=0, sel[0]=0, output y=1
input d0=1, d1=1, d2=1, d3=0, sel[1]=0, sel[0]=1, output y=1
input d0=1, d1=1, d2=1, d3=0, sel[1]=1, sel[0]=0, output y=1
input d0=1, d1=1, d2=1, d3=0, sel[1]=1, sel[0]=1, output y=0
input d0=0, d1=0, d2=0, d3=1, sel[1]=0, sel[0]=0, output y=0
input d0=0, d1=0, d2=0, d3=1, sel[1]=0, sel[0]=1, output y=0
input d0=0, d1=0, d2=0, d3=1, sel[1]=1, sel[0]=0, output y=0
input d0=0, d1=0, d2=0, d3=1, sel[1]=1, sel[0]=1, output y=1
input d0=1, d1=0, d2=0, d3=1, sel[1]=0, sel[0]=0, output y=1
input d0=1, d1=0, d2=0, d3=1, sel[1]=0, sel[0]=1, output y=0
input d0=1, d1=0, d2=0, d3=1, sel[1]=1, sel[0]=0, output y=0
input d0=1, d1=0, d2=0, d3=1, sel[1]=1, sel[0]=1, output y=1
input d0=0, d1=1, d2=0, d3=1, sel[1]=0, sel[0]=0, output y=0
input d0=0, d1=1, d2=0, d3=1, sel[1]=0, sel[0]=1, output y=1
input d0=0, d1=1, d2=0, d3=1, sel[1]=1, sel[0]=0, output y=0
input d0=0, d1=1, d2=0, d3=1, sel[1]=1, sel[0]=1, output y=1
input d0=1, d1=1, d2=0, d3=1, sel[1]=0, sel[0]=0, output y=1
input d0=1, d1=1, d2=0, d3=1, sel[1]=0, sel[0]=1, output y=1
input d0=1, d1=1, d2=0, d3=1, sel[1]=1, sel[0]=0, output y=0
input d0=1, d1=1, d2=0, d3=1, sel[1]=1, sel[0]=1, output y=1
input d0=0, d1=0, d2=1, d3=1, sel[1]=0, sel[0]=0, output y=0
input d0=0, d1=0, d2=1, d3=1, sel[1]=0, sel[0]=1, output y=0
input d0=0, d1=0, d2=1, d3=1, sel[1]=1, sel[0]=0, output y=1
input d0=0, d1=0, d2=1, d3=1, sel[1]=1, sel[0]=1, output y=1
input d0=1, d1=0, d2=1, d3=1, sel[1]=0, sel[0]=0, output y=1
input d0=1, d1=0, d2=1, d3=1, sel[1]=0, sel[0]=1, output y=0
input d0=1, d1=0, d2=1, d3=1, sel[1]=1, sel[0]=0, output y=1
input d0=1, d1=0, d2=1, d3=1, sel[1]=1, sel[0]=1, output y=1
input d0=0, d1=1, d2=1, d3=1, sel[1]=0, sel[0]=0, output y=0
input d0=0, d1=1, d2=1, d3=1, sel[1]=0, sel[0]=1, output y=1
input d0=0, d1=1, d2=1, d3=1, sel[1]=1, sel[0]=0, output y=1
input d0=0, d1=1, d2=1, d3=1, sel[1]=1, sel[0]=1, output y=1
input d0=1, d1=1, d2=1, d3=1, sel[1]=0, sel[0]=0, output y=1
input d0=1, d1=1, d2=1, d3=1, sel[1]=0, sel[0]=1, output y=1
input d0=1, d1=1, d2=1, d3=1, sel[1]=1, sel[0]=0, output y=1
input d0=1, d1=1, d2=1, d3=1, sel[1]=1, sel[0]=1, output y=1
$finish called at time : 640 ns : File "C:/Users/Virupakshayya/Desktop/45-Days-RTL-Coding-Challenge/tb/day6/mux4_1_tb.v" Line 40
