day12/sim/jkff_using_dff.sim/sim_1/behav/xsim/simulate.log
Time resolution is 1 ps
values of clk=0, rst=0, j=0, k=0, q=x, qb=x
values of clk=1, rst=0, j=0, k=0, q=x, qb=x
values of clk=0, rst=1, j=0, k=0, q=x, qb=x
values of clk=1, rst=1, j=0, k=0, q=0, qb=1
values of clk=0, rst=0, j=0, k=0, q=0, qb=1
values of clk=1, rst=0, j=0, k=0, q=0, qb=1
values of clk=0, rst=0, j=0, k=0, q=0, qb=1
values of clk=1, rst=0, j=0, k=0, q=0, qb=1
values of clk=0, rst=0, j=0, k=1, q=0, qb=1
values of clk=1, rst=0, j=0, k=1, q=0, qb=1
values of clk=0, rst=0, j=1, k=0, q=0, qb=1
values of clk=1, rst=0, j=1, k=0, q=1, qb=0
values of clk=0, rst=0, j=1, k=1, q=1, qb=0
values of clk=1, rst=0, j=1, k=1, q=0, qb=1
values of clk=0, rst=0, j=1, k=1, q=0, qb=1
values of clk=1, rst=0, j=1, k=1, q=1, qb=0
values of clk=0, rst=1, j=1, k=1, q=1, qb=0
values of clk=1, rst=1, j=1, k=1, q=0, qb=1
values of clk=0, rst=0, j=1, k=1, q=0, qb=1
values of clk=1, rst=0, j=1, k=1, q=1, qb=0
values of clk=0, rst=0, j=0, k=0, q=1, qb=0
values of clk=1, rst=0, j=0, k=0, q=1, qb=0
values of clk=0, rst=0, j=1, k=0, q=1, qb=0
values of clk=1, rst=0, j=1, k=0, q=1, qb=0
$finish called at time : 240 ns : File "C:/Users/Virupakshayya/Desktop/45-Days-RTL-Coding-Challenge/day12/tb/jkff_using_dff_tb.v" Line 68
